{
	"2013B39060": {
     "courseOfferingId": "2013B39060",
     "canonicalCourse": {
		"courseId": "39060",
		"title": "History 5",
		"department":"History",
		"catalog_id":"5"
	 },
     "ccn":"39060",
	 "section":"001", 
     "term_code":"B",
     "term_year":"2013",
     "building":"Wurster",
     "room_number":"101",
     "meeting_days":"  T T  ",
     "start_time":"1000A",
     "end_time":"1130A",
     "instructors": [{
			"ldapId": "730565",
			"name": "Michelle Ziegmann",
			"emailAddress": "michelle@berkeley.edu"
		}, {
			"ldapId": "7129",
			"name": "Judy STERN",
			"emailAddress": "judy@berkeley.edu"
		}, {
			"ldapId": "266945",
			"name": "Daphne Ogel",
			"emailAddress": "daphne@berkeley.edu"
		}, {
			"ldapId": "271592",
			"name": "John F KING",
			"emailAddress": "johnk@berkeley.edu"
		}, {
			"ldapId": "11410",
			"name": "Mr. Sergio FERIA",
			"emailAddress": "sergio@berkeley.edu"
		}] }
}
